#base "MatchMakingDashboardSidePanel.res"

"Resource/UI/MatchMakingDashboardMvMCriteria.res"
{
	"MVMCriteria"
	{
		"fieldName"		"MVMCriteria"
		"xpos"			"r0"
		"ypos"			"10"
		"zpos"			"1002"
		"wide"			"420"
		"tall"			"f70"
		"visible"		"1"
		"proportionaltoparent"	"1"
	}

	"criteria"
	{
		"ControlName"	"CMVMCriteriaPanel"
		"fieldName"		"criteria"
		"xpos"			"5"
		"ypos"			"15"
		"zpos"			"100"
		"wide"			"410"
		"tall"			"f50"
		"visible"		"1"
		"proportionaltoparent"	"1"

		"pinCorner"		"2"
	}

	"BackButton"
	{
		"ControlName"	"CExButton"
		"fieldName"		"BackButton"
		"xpos"			"6"
		"ypos"			"rs1-8"
		"zpos"			"100"
		"wide"			"90"
		"tall"			"20"
		"autoResize"	"0"
		"pinCorner"		"3"
		"visible"		"1"
		"enabled"		"1"
		"tabPosition"	"0"
		"font"			"Product14Bold"
		"textAlignment"	"center"
		"dulltext"		"0"
		"brighttext"	"0"
		"Command"		"back"
		"proportionaltoparent"	"1"
		"labeltext"		"#TF_Matchmaking_Back"
		"mouseinputenabled"	"1"
		"keyboardinputenabled"	"0"
		//"actionsignallevel"	"1"
		"bgcolor_override"				"0 0 0 0"
		"defaultBgColor_override"		"0 0 0 0"
		"armedBgColor_override"			"0 0 0 0"
		"defaultfgColor_override"		"180 180 180 255"
		"armedfgColor_override"			"White"
		"border_default"		"noborder"
		"sound_depressed"	"UI/buttonclick.wav"
		"sound_released"	"UI/buttonclickrelease.wav"
	}

	"MannUpToolTipButtonHack"
	{
		"ControlName"	"EditablePanel"
		"fieldName"		"MannUpToolTipButtonHack"
		"xpos"			"106"
		"ypos"			"rs1-8"
		"zpos"			"101"
		"wide"			"170"
		"tall"			"20"
		"visible"		"0"
		"enabled"		"1"
		"mouseinputenabled"	"1"
		"eatmouseinput"	"0"	
		"showtooltipswhenmousedisabled"	"1"
		"proportionaltoparent" "1"
	}

	"MannUpQueueButton"
	{
		"ControlName"	"CExButton"
		"fieldName"		"MannUpQueueButton"
		"xpos"			"106"
		"ypos"			"rs1-8"
		"zpos"			"100"
		"wide"			"170"
		"tall"			"20"
		"autoResize"	"0"
		"pinCorner"		"3"
		"visible"		"1"
		"enabled"		"1"
		"tabPosition"	"0"
		"font"			"Product14Bold"
		"textAlignment"	"center"
		"dulltext"		"0"
		"brighttext"	"0"
		"Command"		"start_search"
		"proportionaltoparent"	"1"
		"labeltext"		"#TF_Matchmaking_StartSearch"
		"mouseinputenabled"	"1"
		"keyboardinputenabled"	"0"
		"actionsignallevel"	"1"

		"sound_depressed"	"UI/buttonclick.wav"
		"sound_released"	"UI/buttonclickrelease.wav"

		"bgcolor_override"				"0 0 0 0"
		"defaultBgColor_override"		"0 0 0 0"
		"armedBgColor_override"			"0 0 0 0"
		"defaultfgColor_override"		"180 180 180 255"
		"armedfgColor_override"			"White"
		"border_default"		"noborder"
	}

	"BootCampToolTipButtonHack"
	{
		"ControlName"	"EditablePanel"
		"fieldName"		"BootCampToolTipButtonHack"
		"xpos"			"5"
		"ypos"			"rs1-8"
		"zpos"			"101"
		"wide"			"270"
		"tall"			"20"
		"visible"		"0"
		"enabled"		"1"
		"mouseinputenabled"	"1"
		"eatmouseinput"	"0"	
		"showtooltipswhenmousedisabled"	"1"
		"proportionaltoparent" "1"
	}

	"BootCampQueueButton"
	{
		"ControlName"	"CExButton"
		"fieldName"		"BootCampQueueButton"
		"xpos"			"5"
		"ypos"			"rs1-8"
		"zpos"			"100"
		"wide"			"270"
		"tall"			"20"
		"autoResize"	"0"
		"pinCorner"		"3"
		"visible"		"1"
		"enabled"		"1"
		"tabPosition"	"0"
		"font"			"Product14Bold"
		"textAlignment"	"center"
		"dulltext"		"0"
		"brighttext"	"0"
		"Command"		"start_search"
		"proportionaltoparent"	"1"
		"labeltext"		"#TF_Matchmaking_StartSearch"
		"mouseinputenabled"	"1"
		"keyboardinputenabled"	"0"
		"actionsignallevel"	"1"

		"sound_depressed"	"UI/buttonclick.wav"
		"sound_released"	"UI/buttonclickrelease.wav"

		"bgcolor_override"				"0 0 0 0"
		"defaultBgColor_override"		"0 0 0 0"
		"armedBgColor_override"			"0 0 0 0"
		"defaultfgColor_override"		"180 180 180 255"
		"armedfgColor_override"			"White"
		"border_default"		"noborder"
	}

	"NextButton"
	{
		"ControlName"	"CExButton"
		"fieldName"		"NextButton"
		"xpos"			"cs-0.5"
		"ypos"			"rs1-8"
		"zpos"			"100"
		"wide"			"f20"
		"tall"			"20"
		"autoResize"	"0"
		"pinCorner"		"3"
		"visible"		"1"
		"enabled"		"1"
		"tabPosition"	"0"
		"font"			"Product14Bold"
		"textAlignment"	"center"
		"dulltext"		"0"
		"brighttext"	"0"
		"Command"		"select_tour"
		"proportionaltoparent"	"1"
		"labeltext"		"#TF_MvM_SelectChallenge"
		"mouseinputenabled"	"1"
		"keyboardinputenabled"	"0"
		//"actionsignallevel"	"1"

		"sound_depressed"	"UI/buttonclick.wav"
		"sound_released"	"UI/buttonclickrelease.wav"
	}

	"JoinLateCheckButton"
	{
		"ControlName"		"CheckButton"
		"fieldName"		"JoinLateCheckButton"
		"xpos"		"rs1"
		"ypos"		"rs1-9"
		"zpos"		"50"
		"wide"		"140"
		"tall"		"20"
		"font"			"Product10"
		"labelText"		""
		"proportionaltoparent"	"1"
	}

	"JoinLateLabel"
	{
		"ControlName"		"Label"
		"fieldName"		"JoinLateLabel"
		"xpos"		"rs1"
		"ypos"		"rs1-9"
		"zpos"		"50"
		"wide"		"115"
		"tall"		"20"
		"font"			"Product10"
		"labelText"		"#TF_Matchmaking_JoinInProgress"
		"proportionaltoparent"	"1"
	}
}
