"Resource/UI/MvMInWorldCurrency.res"
{
	"BorderBG"
	{
		"ControlName"	"EditablePanel"
		"fieldName"		"BorderBG"
		"xpos"			"0"
		"ypos"			"0"
		"zpos"			"1"
		"wide"			"46"
		"tall"			"14"
		"visible"		"0"
		"enabled"		"0"
		"PaintBackgroundType"	"0"
		"bgcolor_override"	"TanLight"
	}	
	
	"BackgroundGood"
	{
		"ControlName"	"EditablePanel"
		"fieldName"		"BackgroundGood"
		"xpos"			"1"
		"ypos"			"1"
		"zpos"			"2"
		"wide"			"44"
		"tall"			"12"
		"visible"		"0"
		"enabled"		"0"
		"PaintBackgroundType"	"0"
		"bgcolor_override"	"221 182 72 250"	
	}
	
	"MoneyImagePanel"
	{
		"ControlName"		"ImagePanel"
		"fieldName"		"MoneyImagePanel"
		"xpos"		"0"
		"ypos"		"0"
		"zpos"		"4"
		"wide"		"14"
		"tall"		"14"
		"image"			"../HUD/mvm_cash"
		"visible"		"0"
		"enabled"		"0"
		"scaleImage"	"1"
	}
	
	"CurrencyGood"
	{
		"ControlName"	"CExLabel"
		"fieldName"		"CurrencyGood"
		"font"			"Product18Bold"
		"fgcolor"		"180 180 180 255"
		"xpos"			"5"
		"ypos"			"1"
		"zpos"			"4"
		"wide"			"40"
		"tall"			"12"
		"visible"		"1"
		"enabled"		"1"
		"textAlignment"	"center"	
		"labelText"		"%currency%"
	}	
	"CurrencyBad"
	{
		"ControlName"	"CExLabel"
		"fieldName"		"CurrencyBad"
		"font"			"Product18Bold"
		"fgcolor"		"180 180 180 255"
		"xpos"			"5"
		"ypos"			"1"
		"zpos"			"4"
		"wide"			"40"
		"tall"			"12"
		"visible"		"1"
		"enabled"		"1"
		"textAlignment"	"center"	
		"labelText"		"%currency%"
	}
	"CurrencyShadow"
	{
		"ControlName"								"CExLabel"
		"fieldName"									"CurrencyShadow"
		"font"										"Product18Bold"
		"fgcolor"									"0 0 0 255"
		"xpos"										"-1"
		"ypos"										"-1"
		"zpos"										"4"
		"wide"										"40"
		"tall"										"12"
		"visible"									"1"
		"enabled"									"1"
		"textAlignment"								"center"	
		"labelText"									"%currency%"
		
		"pin_to_sibling"							"CurrencyGood"
		"pin_corner_to_sibling"						"PIN_TOPLEFT"
		"pin_to_sibling_corner"						"PIN_TOPLEFT"
	}
}