"Resource/UI/MvMScoreboard.res"
{		
	"WaveStatusPanel"
	{
		"ControlName"		"CWaveStatusPanel"
		"fieldName"			"WaveStatusPanel"
		"xpos"				"0"
		"ypos"				"0"
		"zpos"				"0"
		"wide"				"600"
		"tall"				"67"
		"visible"			"1"
		"enabled"			"1"
		
		"verbose"			"1"
	}
	
	"PopFileLabel"
	{
		"ControlName"	"CExLabel"
		"fieldName"		"PopFileLabel"
		"font"			"product12Bold"
		"labelText"		"%popfile%"
		"textAlignment"	"east"
		"xpos"			"0"
		"ypos"			"33330"
		"wide"			"165"
		"tall"			"20"
		"fgcolor"		"tanlight"
	}

	"DifficultyContainer"
	{
		"ControlName"	"EditablePanel"
		"fieldName"		"DifficultyContainer"
		"xpos"			"999" //370
		"ypos"			"30"
		"wide"			"150"
		"tall"			"20"
		"visible"		"1"
		
		"DifficultyLabel"
		{
			"ControlName"	"CExLabel"
			"fieldName"		"DifficultyLabel"
			"font"			"Product10Bold"
			"labelText"		"#TF_MvM_Difficulty"
			"textAlignment"	"center"
			"xpos"			"40"
			"ypos"			"0"
			"wide"			"150"
			"tall"			"10"
			"fgcolor"		"tanlight"
		}
		
		"DifficultyValue"
		{
			"ControlName"	"CExLabel"
			"fieldName"		"DifficultyValue"
			"font"			"Product14Bold"
			"labelText"		"%difficultyvalue%"
			"textAlignment"	"center"
			"xpos"			"40"
			"ypos"			"10"
			"wide"			"150"
			"tall"			"10"
			"fgcolor"		"tanlight"
		}
	}
	
	"PlayerListBackground"
	{
		"ControlName"		"ScalableImagePanel"
		"fieldName"		"PlayerListBackground"
		"xpos"			"25"
		"ypos"			"999"
		"zpos"			"-1"
		"wide"			"550"
		"tall"			"150"
		"visible"		"1"
		"enabled"		"1"
		"image"			"../hud/tournament_panel_brown"
		
		"scaleImage"		"1"
		
		"src_corner_height"	"22"				// pixels inside the image
		"src_corner_width"	"22"
	
		"draw_corner_width"	"5"				// screen size of the corners ( and sides ), proportional
		"draw_corner_height" 	"5"	
	}
	
	"MvMPlayerList"
	{
		"ControlName"	"SectionedListPanel"
		"fieldName"		"MvMPlayerList"
		"xpos"			"35"
		"ypos"			"79"
		"wide"			"530"
		"tall"			"150"
		"pinCorner"		"0"
		"visible"		"1"
		"enabled"		"1"
		"tabPosition"	"0"
		"autoresize"	"3"
		"linespacing"	"22"
		"textcolor"		"White"
	}
	
	"CreditStatsContainer"
	{
		"ControlName"	"EditablePanel"
		"fieldName"		"CreditStatsContainer"
		"xpos"			"100"
		"ypos"			"230"
		"wide"			"400"
		"tall"			"205"
		"visible"		"1"
		
		"CreditStatsBackground"
		{
			"ControlName"		"ScalableImagePanel"
			"fieldName"		"CreditStatsBackground"
			"xpos"			"0"
			"ypos"			"999"
			"zpos"			"-1"
			"wide"			"400"
			"tall"			"135"
			"autoResize"	"0"
			"pinCorner"		"0"
			"visible"		"1"
			"enabled"		"1"
			"image"			"../HUD/tournament_panel_brown"

			"src_corner_height"	"22"				// pixels inside the image
			"src_corner_width"	"22"
		
			"draw_corner_width"	"5"				// screen size of the corners ( and sides ), proportional
			"draw_corner_height" 	"5"	
		}
		
		"CreditsLabel"
		{
			"ControlName"	"CExLabel"
			"fieldName"		"CreditsLabel"
			"font"			"Product18"
			"labelText"		"#TF_PVE_Currency"
			"textAlignment" "north-west"
			"xpos"			"8"
			"ypos"			"8"
			"wide"			"100"
			"tall"			"25"
			"fgcolor"		"tanlight"
		}
		
		"PreviousWaveCreditInfoPanel"
		{
			"ControlName"	"CCreditDisplayPanel"
			"fieldName"		"PreviousWaveCreditInfoPanel"
			"xpos"			"8"
			"ypos"			"30"
			"wide"			"184"
			"tall"			"60"
			"wide"			"200"
			"visible"		"1"
		}
		
		"TotalGameCreditInfoPanel"
		{
			"ControlName"	"CCreditDisplayPanel"
			"fieldName"		"TotalGameCreditInfoPanel"
			"xpos"			"208"
			"ypos"			"30"
			"wide"			"184"
			"tall"			"60"
			"wide"			"200"
			"visible"		"1"
		}
		
		"PreviousWaveCreditSpendPanel"
		{
			"ControlName"	"CCreditSpendPanel"
			"fieldName"		"PreviousWaveCreditSpendPanel"
			"xpos"			"8"
			"ypos"			"75"
			"wide"			"184"
			"tall"			"60"
			"wide"			"200"
			"visible"		"1"
		}
		
		"TotalGameCreditSpendPanel"
		{
			"ControlName"	"CCreditSpendPanel"
			"fieldName"		"TotalGameCreditSpendPanel"
			"xpos"			"208"
			"ypos"			"75"
			"wide"			"184"
			"tall"			"60"
			"wide"			"200"
			"visible"		"1"
		}

		"RespecStatusLabel"
		{
			"ControlName"	"CExLabel"
			"fieldName"		"RespecStatusLabel"
			"font"			"Product10"
			"labelText"		"%respecstatus%"
			"textAlignment" "north-east"
			"xpos"			"115"
			"ypos"			"8"
			"wide"			"275"
			"tall"			"20"
			"fgcolor"		"tanlight"
		}
	}
}
